ROI;Param;Unit;Value;Result;ResultUnit
GTV-1;Volume;;;58.33;cc
GTV-1;D;max;;50.49;Gy
GTV-1;D;mean;;48.37;Gy
GTV-1;D;min;;45.27;Gy
GTV-1;D;2;PERC;50.03;Gy
GTV-1;D;5;PERC;49.66;Gy
GTV-1;D;10;PERC;49.43;Gy
GTV-1;D;25;PERC;49.00;Gy
GTV-1;D;50;PERC;48.48;Gy
GTV-1;D;75;PERC;47.92;Gy
GTV-1;D;90;PERC;47.16;Gy
GTV-1;D;95;PERC;46.90;Gy
GTV-1;D;98;PERC;46.29;Gy
GTV-1;V;46;Gy;57.8;cc
GTV-1;V;47;Gy;53.8;cc
GTV-1;V;48;Gy;40.2;cc
GTV-1;V;49;Gy;14.6;cc
GTV-1;V;50;Gy;1.3;cc
Heart;Volume;;;687.96;cc
Heart;D;max;;42.75;Gy
Heart;D;mean;;3.18;Gy
Heart;D;min;;0.1948;Gy
Heart;D;2;PERC;24.5;Gy
Heart;D;5;PERC;14.18;Gy
Heart;D;10;PERC;8.30;Gy
Heart;D;15;PERC;5.35;Gy
Heart;D;25;PERC;2.85;Gy
Heart;D;50;PERC;1.15;Gy
Heart;D;90;PERC;0.42;Gy
Heart;D;98;PERC;0.31;Gy
Heart;V;1;Gy;382.9;cc
Heart;V;2;Gy;219.6;cc
Heart;V;3;Gy;165.6;cc
Heart;V;4;Gy;132.2;cc
Heart;V;5;Gy;109.1;cc
Heart;V;10;Gy;55.6;cc
Heart;V;20;Gy;19.9;cc
Lung_R;Volume;;;2334.3;cc
Lung_R;D;max;;36.9;Gy
Lung_R;D;mean;;6.48;Gy
Lung_R;D;min;;0.1548;Gy
Lung_R;D;2;PERC;21.50;Gy
Lung_R;D;5;PERC;17.44;Gy
Lung_R;D;10;PERC;13.95;Gy
Lung_R;D;15;PERC;11.92;Gy
Lung_R;D;25;PERC;9.56;Gy
Lung_R;D;50;PERC;5.92;Gy
Lung_R;D;90;PERC;0.53;Gy
Lung_R;D;98;PERC;0.30;Gy
Lung_R;V;1;Gy;1865;cc
Lung_R;V;2;Gy;1577;cc
Lung_R;V;3;Gy;1488.3;cc
Lung_R;V;4;Gy;1397.8;cc
Lung_R;V;5;Gy;1293;cc
Lung_R;V;10;Gy;528.7;cc
Lung_R;V;20;Gy;67.1;cc
Lung_L;Volume;;;1637.7;cc
Lung_L;D;max;;50.4;Gy
Lung_L;D;mean;;20.84;Gy
Lung_L;D;min;;0.185;Gy
Lung_L;D;2;PERC;48.70;Gy
Lung_L;D;5;PERC;47.62;Gy
Lung_L;D;10;PERC;45.72;Gy
Lung_L;D;15;PERC;43.16;Gy
Lung_L;D;25;PERC;35.16;Gy
Lung_L;D;50;PERC;20.23;Gy
Lung_L;D;60;PERC;12.37;Gy
Lung_L;D;75;PERC;3.63;Gy
Lung_L;D;90;PERC;0.98;Gy
Lung_L;D;98;PERC;0.38;Gy
Lung_L;V;1;Gy;1469;cc
Lung_L;V;2;Gy;1338;cc
Lung_L;V;3;Gy;1261.7;cc
Lung_L;V;4;Gy;1210.6;cc
Lung_L;V;5;Gy;1168.5;cc
Lung_L;V;10;Gy;1031.3;cc
Lung_L;V;20;Gy;823.9;cc
Lung_L;V;30;Gy;526.1;cc
Lung_L;V;46;Gy;152.6;cc
Lung_L;V;47;Gy;109.1;cc
Lung_L;V;48;Gy;66;cc
Lung_L;V;49;Gy;18.3;cc
Esophagus;Volume;;;44.08;cc
Esophagus;D;max;;46.35;Gy
Esophagus;D;mean;;16.42;Gy
Esophagus;D;min;;0.355;Gy
Esophagus;D;2;PERC;45.37;Gy
Esophagus;D;5;PERC;44.49;Gy
Esophagus;D;10;PERC;43.11;Gy
Esophagus;D;15;PERC;41.03;Gy
Esophagus;D;25;PERC;34.14;Gy
Esophagus;D;50;PERC;8.01;Gy
Esophagus;D;75;PERC;1.12;Gy
Esophagus;D;90;PERC;0.59;Gy
Esophagus;D;98;PERC;0.39;Gy
Esophagus;V;1;Gy;33.9;cc
Esophagus;V;2;Gy;28.3;cc
Esophagus;V;3;Gy;25.7;cc
Esophagus;V;4;Gy;24.4;cc
Esophagus;V;5;Gy;23.7;cc
Esophagus;V;10;Gy;20.2;cc
Esophagus;V;20;Gy;16.8;cc
Esophagus;V;30;Gy;12.5;cc
Esophagus;V;43;Gy;4.6;cc
Esophagus;V;44;Gy;3.2;cc
Esophagus;V;45;Gy;1.4;cc
NS_Dose 74.5[Gy];Volume;;;4.0125;cc
NS_Dose 74.5[Gy];D;max;;49.50;Gy
NS_Dose 74.5[Gy];D;mean;;47.59;Gy
NS_Dose 74.5[Gy];D;min;;46.52;Gy
NS_Dose 74.5[Gy];D;2;PERC;49.09;Gy
NS_Dose 74.5[Gy];D;5;PERC;48.54;Gy
NS_Dose 74.5[Gy];D;10;PERC;48.32;Gy
NS_Dose 74.5[Gy];D;25;PERC;47.90;Gy
NS_Dose 74.5[Gy];D;50;PERC;47.51;Gy
NS_Dose 74.5[Gy];D;75;PERC;47.26;Gy
NS_Dose 74.5[Gy];D;90;PERC;46.99;Gy
NS_Dose 74.5[Gy];D;95;PERC;46.87;Gy
NS_Dose 74.5[Gy];D;98;PERC;46.62;Gy
NS_Dose 74.5[Gy];V;46;Gy;4.0;cc
NS_Dose 74.5[Gy];V;47.25;Gy;3.0;cc
NS_Dose 74.5[Gy];V;47.7;Gy;1.3;cc
NS_Dose 74.5[Gy];V;48;Gy;0.8;cc